41.585725, -8.782195
41.481822, -8.767671
40.279724, -7.495091
41.409011, -7.447491
41.751892, -7.425622
41.572095, -7.594798
41.498240, -7.651784
41.106435, -7.961984
41.170211, -7.797344
41.148337, -7.407957
41.271956, -7.478891
40.611053, -7.765508
40.113462, -8.249694
38.015994, -8.712053
37.987525, -8.755595
37.959446, -8.852665
38.009542, -7.855836
38.047696, -7.854095
38.086709, -7.915186
38.170562, -7.888868
38.310685, -7.702786
38.864447, -6.983174